<svg
  width="18"
  height="20"
  viewBox="0 0 18 20"
  fill="none"
  xmlns="http://www.w3.org/2000/svg"
>
  <path
    d="M17.3125 13.7344V1.26562C17.3125 0.783203 16.9043 0.375 16.4219 0.375H4.25C2.2832 0.375 0.6875 1.9707 0.6875 3.9375V15.8125C0.6875 17.7793 2.2832 19.375 4.25 19.375H16.4219C16.9043 19.375 17.3125 19.0039 17.3125 18.4844V17.8906C17.3125 17.6309 17.1641 17.3711 16.9785 17.2227C16.793 16.6289 16.793 14.9961 16.9785 14.4395C17.1641 14.291 17.3125 14.0312 17.3125 13.7344ZM5.4375 5.34766C5.4375 5.23633 5.51172 5.125 5.66016 5.125H13.5273C13.6387 5.125 13.75 5.23633 13.75 5.34766V6.08984C13.75 6.23828 13.6387 6.3125 13.5273 6.3125H5.66016C5.51172 6.3125 5.4375 6.23828 5.4375 6.08984V5.34766ZM5.4375 7.72266C5.4375 7.61133 5.51172 7.5 5.66016 7.5H13.5273C13.6387 7.5 13.75 7.61133 13.75 7.72266V8.46484C13.75 8.61328 13.6387 8.6875 13.5273 8.6875H5.66016C5.51172 8.6875 5.4375 8.61328 5.4375 8.46484V7.72266ZM14.8262 17H4.25C3.58203 17 3.0625 16.4805 3.0625 15.8125C3.0625 15.1816 3.58203 14.625 4.25 14.625H14.8262C14.752 15.293 14.752 16.3691 14.8262 17Z"
    fill="#000000"
  />
</svg>
